X,Y,Code,Width,Height,Destination,UP_Wall,Right_Wall,RD_Wall,DownWall,LD_Wall,Left_Wall
0,0,0,9,7
0,0,-1,0,0,False,False,False,False,False,False,False
0,1,-1,0,0,False,False,False,False,False,False,False
0,2,-1,0,0,False,False,False,False,False,False,False
0,3,-1,0,0,False,False,False,False,False,False,False
0,4,-1,0,0,False,False,False,False,False,False,False
0,5,-1,0,0,False,False,False,False,False,False,False
0,6,-1,0,0,False,False,False,False,False,False,False
1,0,4,0,0,False,False,False,False,False,False,False
1,1,0,0,0,False,False,False,False,False,False,False
1,2,4,0,0,False,False,False,False,False,False,False
1,3,-1,0,0,False,False,False,False,False,False,False
1,4,-1,0,0,False,False,False,False,False,False,False
1,5,-1,0,0,False,False,False,False,False,False,False
1,6,-1,0,0,False,False,False,False,False,False,False
2,0,0,0,0,False,False,False,False,False,False,False
2,1,0,0,0,False,False,False,False,False,False,False
2,2,0,0,0,False,False,False,False,False,False,False
2,3,-1,0,0,False,False,False,False,False,False,False
2,4,-1,0,0,False,False,False,False,False,False,False
2,5,-1,0,0,False,False,False,False,False,False,False
2,6,-1,0,0,False,False,False,False,False,False,False
3,0,-1,0,0,False,False,False,False,False,False,False
3,1,4,0,0,False,False,False,False,False,False,False
3,2,0,0,0,False,False,False,False,False,False,False
3,3,4,0,0,False,False,False,False,False,False,False
3,4,-1,0,0,False,False,False,False,False,False,False
3,5,-1,0,0,False,False,False,False,False,False,False
3,6,-1,0,0,False,False,False,False,False,False,False
4,0,-1,0,0,False,False,False,False,False,False,False
4,1,0,0,0,False,False,False,False,False,False,False
4,2,0,0,0,False,False,False,False,False,False,False
4,3,0,0,0,False,False,False,False,False,False,False
4,4,-1,0,0,False,False,False,False,False,False,False
4,5,-1,0,0,False,False,False,False,False,False,False
4,6,-1,0,0,False,False,False,False,False,False,False
5,0,-1,0,0,False,False,False,False,False,False,False
5,1,-1,0,0,False,False,False,False,False,False,False
5,2,4,0,0,False,False,False,False,False,False,False
5,3,0,0,0,False,False,False,False,False,False,False
5,4,4,0,0,False,False,False,False,False,False,False
5,5,-1,0,0,False,False,False,False,False,False,False
5,6,-1,0,0,False,False,False,False,False,False,False
6,0,-1,0,0,False,False,False,False,False,False,False
6,1,-1,0,0,False,False,False,False,False,False,False
6,2,0,0,0,False,False,False,False,False,False,False
6,3,0,0,0,False,False,False,False,False,False,False
6,4,0,0,0,False,False,False,False,False,False,False
6,5,-1,0,0,False,False,False,False,False,False,False
6,6,-1,0,0,False,False,False,False,False,False,False
7,0,-1,0,0,False,False,False,False,False,False,False
7,1,-1,0,0,False,False,False,False,False,False,False
7,2,-1,0,0,False,False,False,False,False,False,False
7,3,4,0,0,False,False,False,False,False,False,False
7,4,4,0,0,False,False,False,False,False,False,False
7,5,0,0,0,False,False,False,False,False,False,False
7,6,-1,0,0,False,False,False,False,False,False,False
8,0,-1,0,0,False,False,False,False,False,False,False
8,1,-1,0,0,False,False,False,False,False,False,False
8,2,-1,0,0,False,False,False,False,False,False,False
8,3,0,0,0,False,False,False,False,False,False,False
8,4,0,0,0,False,False,False,False,False,False,False
8,5,1,0,0,False,False,False,False,False,False,False
8,6,-1,0,0,False,False,False,False,False,False,False
