X,Y,Code,Width,Height,Destination,UP_Wall,Right_Wall,RD_Wall,DownWall,LD_Wall,Left_Wall
0,0,0,12,9
0,0,-1,0,0,False,False,False,False,False,False,False
0,1,-1,0,0,False,False,False,False,False,False,False
0,2,-1,0,0,False,False,False,False,False,False,False
0,3,-1,0,0,False,False,False,False,False,False,False
0,4,-1,0,0,False,False,False,False,False,False,False
0,5,-1,0,0,False,False,False,False,False,False,False
0,6,-1,0,0,False,False,False,False,False,False,False
0,7,1,0,0,False,False,False,False,False,False,False
0,8,-1,0,0,False,False,False,False,False,False,False
1,0,-1,0,0,False,False,False,False,False,False,False
1,1,-1,0,0,False,False,False,False,False,False,False
1,2,-1,0,0,False,False,False,False,False,False,False
1,3,-1,0,0,False,False,False,False,False,False,False
1,4,-1,0,0,False,False,False,False,False,False,False
1,5,3,0,0,False,False,False,False,False,False,False
1,6,-1,0,0,False,False,False,False,False,False,False
1,7,0,0,0,False,False,False,False,False,False,False
1,8,0,0,0,False,False,False,False,False,False,False
2,0,-1,0,0,False,False,False,False,False,False,False
2,1,-1,0,0,False,False,False,False,False,False,False
2,2,-1,0,0,False,False,False,False,False,False,False
2,3,-1,0,0,False,False,False,False,False,False,False
2,4,-1,0,0,False,False,False,False,False,False,False
2,5,3,0,0,False,False,False,False,False,False,False
2,6,0,0,0,False,False,False,False,False,False,False
2,7,3,0,0,False,False,False,False,False,False,False
2,8,-1,0,0,False,False,False,False,False,False,False
3,0,-1,0,0,False,False,False,False,False,False,False
3,1,-1,0,0,False,False,False,False,False,False,False
3,2,-1,0,0,False,False,False,False,False,False,False
3,3,-1,0,0,False,False,False,False,False,False,False
3,4,-1,0,0,False,False,False,False,False,False,False
3,5,-1,0,0,False,False,False,False,False,False,False
3,6,3,0,0,False,False,False,False,False,False,False
3,7,0,0,0,False,False,False,False,False,False,False
3,8,3,0,0,False,False,False,False,False,False,False
4,0,-1,0,0,False,False,False,False,False,False,False
4,1,-1,0,0,False,False,False,False,False,False,False
4,2,-1,0,0,False,False,False,False,False,False,False
4,3,3,0,0,False,False,False,False,False,False,False
4,4,-1,0,0,False,False,False,False,False,False,False
4,5,0,0,0,False,False,False,False,False,False,False
4,6,0,0,0,False,False,False,False,False,False,False
4,7,-1,0,0,False,False,False,False,False,False,False
4,8,3,0,0,False,False,False,False,False,False,False
5,0,-1,0,0,False,False,False,False,False,False,False
5,1,-1,0,0,False,False,False,False,False,False,False
5,2,-1,0,0,False,False,False,False,False,False,False
5,3,-1,0,0,False,False,False,False,False,False,False
5,4,3,0,0,False,False,False,False,False,False,False
5,5,0,0,0,False,False,False,False,False,False,False
5,6,3,0,0,False,False,False,False,False,False,False
5,7,-1,0,0,False,False,False,False,False,False,False
5,8,-1,0,0,False,False,False,False,False,False,False
6,0,-1,0,0,False,False,False,False,False,False,False
6,1,-1,0,0,False,False,False,False,False,False,False
6,2,-1,0,0,False,False,False,False,False,False,False
6,3,-1,0,0,False,False,False,False,False,False,False
6,4,3,0,0,False,False,False,False,False,False,False
6,5,0,0,0,False,False,False,False,False,False,False
6,6,3,0,0,False,False,False,False,False,False,False
6,7,-1,0,0,False,False,False,False,False,False,False
6,8,-1,0,0,False,False,False,False,False,False,False
7,0,-1,0,0,False,False,False,False,False,False,False
7,1,-1,0,0,False,False,False,False,False,False,False
7,2,-1,0,0,False,False,False,False,False,False,False
7,3,-1,0,0,False,False,False,False,False,False,False
7,4,0,0,0,False,False,False,False,False,False,False
7,5,0,0,0,False,False,False,False,False,False,False
7,6,-1,0,0,False,False,False,False,False,False,False
7,7,3,0,0,False,False,False,False,False,False,False
7,8,-1,0,0,False,False,False,False,False,False,False
8,0,-1,0,0,False,False,False,False,False,False,False
8,1,-1,0,0,False,False,False,False,False,False,False
8,2,-1,0,0,False,False,False,False,False,False,False
8,3,-1,0,0,False,False,False,False,False,False,False
8,4,3,0,0,False,False,False,False,False,False,False
8,5,-1,0,0,False,False,False,False,False,False,False
8,6,-1,0,0,False,False,False,False,False,False,False
8,7,-1,0,0,False,False,False,False,False,False,False
8,8,-1,0,0,False,False,False,False,False,False,False
9,0,-1,0,0,False,False,False,False,False,False,False
9,1,-1,0,0,False,False,False,False,False,False,False
9,2,-1,0,0,False,False,False,False,False,False,False
9,3,-1,0,0,False,False,False,False,False,False,False
9,4,-1,0,0,False,False,False,False,False,False,False
9,5,3,0,0,False,False,False,False,False,False,False
9,6,-1,0,0,False,False,False,False,False,False,False
9,7,-1,0,0,False,False,False,False,False,False,False
9,8,-1,0,0,False,False,False,False,False,False,False
10,0,-1,0,0,False,False,False,False,False,False,False
10,1,-1,0,0,False,False,False,False,False,False,False
10,2,-1,0,0,False,False,False,False,False,False,False
10,3,-1,0,0,False,False,False,False,False,False,False
10,4,-1,0,0,False,False,False,False,False,False,False
10,5,-1,0,0,False,False,False,False,False,False,False
10,6,-1,0,0,False,False,False,False,False,False,False
10,7,-1,0,0,False,False,False,False,False,False,False
10,8,-1,0,0,False,False,False,False,False,False,False
11,0,-1,0,0,False,False,False,False,False,False,False
11,1,-1,0,0,False,False,False,False,False,False,False
11,2,-1,0,0,False,False,False,False,False,False,False
11,3,-1,0,0,False,False,False,False,False,False,False
11,4,-1,0,0,False,False,False,False,False,False,False
11,5,-1,0,0,False,False,False,False,False,False,False
11,6,-1,0,0,False,False,False,False,False,False,False
11,7,-1,0,0,False,False,False,False,False,False,False
11,8,-1,0,0,False,False,False,False,False,False,False
