X,Y,Code,Width,Height,Destination,UP_Wall,Right_Wall,RD_Wall,DownWall,LD_Wall,Left_Wall,ETC1,ETC2,ETC3
0,0,0,6,5
0,0,-1,0,0,False,False,False,False,False,False,False,0,0,0
0,1,-1,0,0,False,False,False,False,False,False,False,0,0,0
0,2,-1,0,0,False,False,False,False,False,False,False,0,0,0
0,3,-1,0,0,False,False,False,False,False,False,False,0,0,0
0,4,-1,0,0,False,False,False,False,False,False,False,0,0,0
1,0,-1,0,0,False,False,False,False,False,False,False,0,0,0
1,1,1,0,0,False,False,False,False,False,False,False,0,0,0
1,2,0,0,0,False,False,False,False,False,False,False,0,0,0
1,3,1,0,0,False,False,False,False,False,False,False,0,0,0
1,4,-1,0,0,False,False,False,False,False,False,False,0,0,0
2,0,0,0,0,False,False,False,False,False,False,False,0,0,0
2,1,0,0,0,False,False,False,False,False,False,False,0,0,0
2,2,0,0,0,False,False,False,False,False,False,False,0,0,0
2,3,0,0,0,False,False,False,False,False,False,False,0,0,0
2,4,-1,0,0,False,False,False,False,False,False,False,0,0,0
3,0,1,0,0,False,False,False,False,False,False,False,0,0,0
3,1,0,0,0,False,False,False,False,False,False,False,0,0,0
3,2,5,0,0,False,False,False,False,False,False,False,6,0,0
3,3,0,0,0,False,False,False,False,False,False,False,0,0,0
3,4,1,0,0,False,False,False,False,False,False,False,0,0,0
4,0,0,0,0,False,False,False,False,False,False,False,0,0,0
4,1,0,0,0,False,False,False,False,False,False,False,0,0,0
4,2,0,0,0,False,False,False,False,False,False,False,0,0,0
4,3,0,0,0,False,False,False,False,False,False,False,0,0,0
4,4,-1,0,0,False,False,False,False,False,False,False,0,0,0
5,0,-1,0,0,False,False,False,False,False,False,False,0,0,0
5,1,1,0,0,False,False,False,False,False,False,False,0,0,0
5,2,0,0,0,False,False,False,False,False,False,False,0,0,0
5,3,1,0,0,False,False,False,False,False,False,False,0,0,0
5,4,-1,0,0,False,False,False,False,False,False,False,0,0,0
