X,Y,Code,Width,Height,Destination,UP_Wall,Right_Wall,RD_Wall,DownWall,LD_Wall,Left_Wall,ETC1,ETC2,ETC3,FixedBlock
0,0,0,2,4
0,0,-1,0,0,False,False,False,False,False,False,False,0,0,0,False
0,1,-1,0,0,False,False,False,False,False,False,False,0,0,0,False
0,2,1,0,0,False,False,False,False,False,False,False,0,0,0,False
0,3,-1,0,0,False,False,False,False,False,False,False,0,0,0,False
1,0,0,0,0,True,False,False,False,False,False,False,0,0,0,False
1,1,2,0,0,False,False,False,False,False,False,False,0,0,0,False
1,2,0,0,0,False,False,False,False,False,False,False,0,0,0,False
1,3,0,0,0,False,False,False,False,False,False,False,0,0,0,False
