X,Y,Code,Width,Height,Destination,UP_Wall,Right_Wall,RD_Wall,DownWall,LD_Wall,Left_Wall
0,0,0,4,7
0,0,-1,0,0,False,False,False,False,False,False,False
0,1,-1,0,0,False,False,False,False,False,False,False
0,2,-1,0,0,False,False,False,False,False,False,False
0,3,-1,0,0,False,False,False,False,False,False,False
0,4,-1,0,0,False,False,False,False,False,False,False
0,5,-1,0,0,False,False,False,False,False,False,False
0,6,-1,0,0,False,False,False,False,False,False,False
1,0,0,0,0,False,False,False,False,False,False,False
1,1,4,0,0,False,True,True,True,True,False,False
1,2,0,0,0,False,False,False,False,False,False,False
1,3,0,0,0,False,False,False,False,False,False,False
1,4,0,0,0,False,False,False,False,False,False,False
1,5,1,0,0,False,False,False,False,False,False,False
1,6,-1,0,0,False,False,False,False,False,False,False
2,0,4,0,0,False,False,False,False,False,False,False
2,1,0,0,0,False,False,False,False,False,False,False
2,2,0,0,0,False,False,False,False,False,False,False
2,3,4,0,0,False,False,False,False,False,True,False
2,4,0,0,0,False,False,False,False,False,False,False
2,5,0,0,0,False,False,False,False,False,False,False
2,6,-1,0,0,False,False,False,False,False,False,False
3,0,0,0,0,False,False,False,False,False,False,False
3,1,0,0,0,False,False,False,False,False,False,False
3,2,0,0,0,False,False,False,False,False,False,False
3,3,4,0,0,False,True,False,False,True,True,True
3,4,0,0,0,False,False,False,False,False,False,False
3,5,0,0,0,False,False,False,False,False,False,False
3,6,-1,0,0,False,False,False,False,False,False,False
