X,Y,Code,Width,Height,Destination,UP_Wall,Right_Wall,RD_Wall,DownWall,LD_Wall,Left_Wall,ETC1,ETC2,ETC3,FixedBlock
0,0,0,7,5
0,0,4,0,0,False,False,False,False,False,False,False,0,0,0,False
0,1,0,0,0,False,False,False,False,False,False,False,0,0,0,False
0,2,0,0,0,False,False,False,False,False,False,False,0,0,0,False
0,3,4,0,0,False,True,False,False,False,False,False,0,0,0,False
0,4,-1,0,0,False,False,False,False,False,False,False,0,0,0,False
1,0,0,0,0,False,False,False,False,False,False,False,0,0,0,False
1,1,0,0,0,False,False,False,True,True,True,True,0,0,0,False
1,2,0,0,0,False,False,False,False,False,False,False,0,0,0,False
1,3,0,0,0,False,False,False,True,True,True,False,0,0,0,False
1,4,0,0,0,False,False,False,False,False,False,False,0,0,0,False
2,0,0,0,0,False,False,False,True,True,False,False,0,0,0,False
2,1,4,0,0,False,False,False,False,True,True,False,0,0,0,False
2,2,4,0,0,False,False,False,False,False,True,True,0,0,0,False
2,3,0,0,0,False,False,False,False,False,False,False,0,0,0,False
2,4,-1,0,0,False,False,False,False,False,False,False,0,0,0,False
3,0,0,0,0,False,False,False,False,False,False,False,0,0,0,False
3,1,0,0,0,False,False,False,False,False,False,False,0,0,0,False
3,2,4,0,0,False,True,False,False,True,True,True,0,0,0,False
3,3,0,0,0,False,False,True,True,True,False,False,0,0,0,False
3,4,4,0,0,False,False,False,False,False,False,False,0,0,0,False
4,0,0,0,0,False,False,False,False,False,False,False,0,0,0,False
4,1,1,0,0,False,True,True,True,True,True,True,0,0,0,False
4,2,0,0,0,False,False,False,True,True,False,False,0,0,0,False
4,3,0,0,0,False,False,False,False,False,False,False,0,0,0,False
4,4,-1,0,0,False,False,False,False,False,False,False,0,0,0,False
5,0,0,0,0,False,False,False,False,False,False,False,0,0,0,False
5,1,4,0,0,False,False,False,False,False,False,False,0,0,0,False
5,2,0,0,0,False,False,False,False,True,False,False,0,0,0,False
5,3,0,0,0,False,False,False,False,False,False,False,0,0,0,False
5,4,0,0,0,False,False,False,False,False,False,False,0,0,0,False
6,0,-1,0,0,False,False,False,False,False,False,False,0,0,0,False
6,1,-1,0,0,False,False,False,False,False,False,False,0,0,0,False
6,2,-1,0,0,False,False,False,False,False,False,False,0,0,0,False
6,3,-1,0,0,False,False,False,False,False,False,False,0,0,0,False
6,4,-1,0,0,False,False,False,False,False,False,False,0,0,0,False
