X,Y,Code,Width,Height,Destination,UP_Wall,Right_Wall,RD_Wall,DownWall,LD_Wall,Left_Wall,ETC1,ETC2,ETC3,FixedBlock
0,0,0,11,11
0,0,-1,0,0,False,False,False,False,False,False,False,0,0,0,False
0,1,-1,0,0,False,False,False,False,False,False,False,0,0,0,False
0,2,-1,0,0,False,False,False,False,False,False,False,0,0,0,False
0,3,-1,0,0,False,False,False,False,False,False,False,0,0,0,False
0,4,-1,0,0,False,False,False,False,False,False,False,0,0,0,False
0,5,-1,0,0,False,False,False,False,False,False,False,0,0,0,False
0,6,-1,0,0,False,False,False,False,False,False,False,0,0,0,False
0,7,0,0,0,True,False,False,False,False,False,False,0,0,0,False
0,8,-1,0,0,False,False,False,False,False,False,False,0,0,0,False
0,9,-1,0,0,False,False,False,False,False,False,False,0,0,0,False
0,10,-1,0,0,False,False,False,False,False,False,False,0,0,0,False
1,0,-1,0,0,False,False,False,False,False,False,False,0,0,0,False
1,1,-1,0,0,False,False,False,False,False,False,False,0,0,0,False
1,2,-1,0,0,False,False,False,False,False,False,False,0,0,0,False
1,3,-1,0,0,False,False,False,False,False,False,False,0,0,0,False
1,4,-1,0,0,False,False,False,False,False,False,False,0,0,0,False
1,5,-1,0,0,False,False,False,False,False,False,False,0,0,0,False
1,6,-1,0,0,False,False,False,False,False,False,False,0,0,0,False
1,7,-1,0,0,False,False,False,False,False,False,False,0,0,0,False
1,8,2,0,0,False,False,False,False,False,False,False,0,0,0,False
1,9,-1,0,0,False,False,False,False,False,False,False,0,0,0,False
1,10,-1,0,0,False,False,False,False,False,False,False,0,0,0,False
2,0,-1,0,0,False,False,False,False,False,False,False,0,0,0,False
2,1,-1,0,0,False,False,False,False,False,False,False,0,0,0,False
2,2,-1,0,0,False,False,False,False,False,False,False,0,0,0,False
2,3,-1,0,0,False,False,False,False,False,False,False,0,0,0,False
2,4,-1,0,0,False,False,False,False,False,False,False,0,0,0,False
2,5,-1,0,0,False,False,False,False,False,False,False,0,0,0,False
2,6,-1,0,0,False,False,False,False,False,False,False,0,0,0,False
2,7,-1,0,0,False,False,False,False,False,False,False,0,0,0,False
2,8,0,0,0,False,False,False,False,False,False,False,0,0,0,False
2,9,-1,0,0,False,False,False,False,False,False,False,0,0,0,False
2,10,-1,0,0,False,False,False,False,False,False,False,0,0,0,False
3,0,-1,0,0,False,False,False,False,False,False,False,0,0,0,False
3,1,-1,0,0,False,False,False,False,False,False,False,0,0,0,False
3,2,-1,0,0,False,False,False,False,False,False,False,0,0,0,False
3,3,-1,0,0,False,False,False,False,False,False,False,0,0,0,False
3,4,-1,0,0,False,False,False,False,False,False,False,0,0,0,False
3,5,-1,0,0,False,False,False,False,False,False,False,0,0,0,False
3,6,-1,0,0,False,False,False,False,False,False,False,0,0,0,False
3,7,-1,0,0,False,False,False,False,False,False,False,0,0,0,False
3,8,0,0,0,False,False,False,False,False,False,False,0,0,0,False
3,9,3,0,0,False,False,False,False,False,False,False,0,0,0,False
3,10,-1,0,0,False,False,False,False,False,False,False,0,0,0,False
4,0,-1,0,0,False,False,False,False,False,False,False,0,0,0,False
4,1,-1,0,0,False,False,False,False,False,False,False,0,0,0,False
4,2,-1,0,0,False,False,False,False,False,False,False,0,0,0,False
4,3,-1,0,0,False,False,False,False,False,False,False,0,0,0,False
4,4,-1,0,0,False,False,False,False,False,False,False,0,0,0,False
4,5,-1,0,0,False,False,False,False,False,False,False,0,0,0,False
4,6,-1,0,0,False,False,False,False,False,False,False,0,0,0,False
4,7,0,0,0,False,False,False,False,False,False,False,0,0,0,False
4,8,0,0,0,False,False,False,False,False,False,False,0,0,0,False
4,9,0,0,0,False,False,False,False,False,False,False,0,0,0,False
4,10,-1,0,0,False,False,False,False,False,False,False,0,0,0,False
5,0,-1,0,0,False,False,False,False,False,False,False,0,0,0,False
5,1,-1,0,0,False,False,False,False,False,False,False,0,0,0,False
5,2,-1,0,0,False,False,False,False,False,False,False,0,0,0,False
5,3,-1,0,0,False,False,False,False,False,False,False,0,0,0,False
5,4,-1,0,0,False,False,False,False,False,False,False,0,0,0,False
5,5,-1,0,0,False,False,False,False,False,False,False,0,0,0,False
5,6,-1,0,0,False,False,False,False,False,False,False,0,0,0,False
5,7,0,0,0,False,False,False,False,False,False,False,0,0,0,False
5,8,0,0,0,False,False,False,False,False,False,False,0,0,0,False
5,9,0,0,0,False,False,False,False,False,False,False,0,0,0,False
5,10,2,0,0,False,False,False,False,False,False,False,0,0,0,False
6,0,-1,0,0,False,False,False,False,False,False,False,0,0,0,False
6,1,-1,0,0,False,False,False,False,False,False,False,0,0,0,False
6,2,-1,0,0,False,False,False,False,False,False,False,0,0,0,False
6,3,-1,0,0,False,False,False,False,False,False,False,0,0,0,False
6,4,-1,0,0,False,False,False,False,False,False,False,0,0,0,False
6,5,-1,0,0,False,False,False,False,False,False,False,0,0,0,False
6,6,0,0,0,False,False,False,False,True,True,False,0,0,0,False
6,7,0,0,0,False,False,False,False,False,False,False,0,0,0,False
6,8,2,0,0,False,False,False,False,False,False,False,0,0,0,False
6,9,-1,0,0,False,False,False,False,False,False,False,0,0,0,False
6,10,0,0,0,True,False,False,False,False,False,False,0,0,0,False
7,0,-1,0,0,False,False,False,False,False,False,False,0,0,0,False
7,1,-1,0,0,False,False,False,False,False,False,False,0,0,0,False
7,2,-1,0,0,False,False,False,False,False,False,False,0,0,0,False
7,3,-1,0,0,False,False,False,False,False,False,False,0,0,0,False
7,4,-1,0,0,False,False,False,False,False,False,False,0,0,0,False
7,5,-1,0,0,False,False,False,False,False,False,False,0,0,0,False
7,6,0,0,0,False,False,False,False,False,False,False,0,0,0,False
7,7,0,0,0,False,False,False,False,True,True,False,0,0,0,False
7,8,0,0,0,False,False,False,False,False,False,False,0,0,0,False
7,9,-1,0,0,False,False,False,False,False,False,False,0,0,0,False
7,10,-1,0,0,False,False,False,False,False,False,False,0,0,0,False
8,0,-1,0,0,False,False,False,False,False,False,False,0,0,0,False
8,1,-1,0,0,False,False,False,False,False,False,False,0,0,0,False
8,2,-1,0,0,False,False,False,False,False,False,False,0,0,0,False
8,3,-1,0,0,False,False,False,False,False,False,False,0,0,0,False
8,4,-1,0,0,False,False,False,False,False,False,False,0,0,0,False
8,5,1,0,0,False,False,False,False,True,True,False,0,0,0,False
8,6,0,0,0,False,False,False,False,False,False,False,0,0,0,False
8,7,0,0,0,False,False,False,False,True,True,False,0,0,0,False
8,8,-1,0,0,False,False,False,False,False,False,False,0,0,0,False
8,9,-1,0,0,False,False,False,False,False,False,False,0,0,0,False
8,10,-1,0,0,False,False,False,False,False,False,False,0,0,0,False
9,0,-1,0,0,False,False,False,False,False,False,False,0,0,0,False
9,1,-1,0,0,False,False,False,False,False,False,False,0,0,0,False
9,2,-1,0,0,False,False,False,False,False,False,False,0,0,0,False
9,3,-1,0,0,False,False,False,False,False,False,False,0,0,0,False
9,4,-1,0,0,False,False,False,False,False,False,False,0,0,0,False
9,5,-1,0,0,False,False,False,False,False,False,False,0,0,0,False
9,6,0,0,0,False,False,False,False,True,True,False,0,0,0,False
9,7,2,0,0,False,False,False,False,False,False,False,0,0,0,False
9,8,-1,0,0,False,False,False,False,False,False,False,0,0,0,False
9,9,-1,0,0,False,False,False,False,False,False,False,0,0,0,False
9,10,-1,0,0,False,False,False,False,False,False,False,0,0,0,False
10,0,-1,0,0,False,False,False,False,False,False,False,0,0,0,False
10,1,-1,0,0,False,False,False,False,False,False,False,0,0,0,False
10,2,-1,0,0,False,False,False,False,False,False,False,0,0,0,False
10,3,-1,0,0,False,False,False,False,False,False,False,0,0,0,False
10,4,-1,0,0,False,False,False,False,False,False,False,0,0,0,False
10,5,-1,0,0,False,False,False,False,False,False,False,0,0,0,False
10,6,0,0,0,False,False,False,False,True,True,False,0,0,0,False
10,7,-1,0,0,False,False,False,False,False,False,False,0,0,0,False
10,8,-1,0,0,False,False,False,False,False,False,False,0,0,0,False
10,9,-1,0,0,False,False,False,False,False,False,False,0,0,0,False
10,10,-1,0,0,False,False,False,False,False,False,False,0,0,0,False
