X,Y,Code,Width,Height,Destination,UP_Wall,Right_Wall,RD_Wall,DownWall,LD_Wall,Left_Wall
0,0,0,7,9
0,0,-1,0,0,False,False,False,False,False,False,False
0,1,-1,0,0,False,False,False,False,False,False,False
0,2,-1,0,0,False,False,False,False,False,False,False
0,3,-1,0,0,False,False,False,False,False,False,False
0,4,-1,0,0,False,False,False,False,False,False,False
0,5,-1,0,0,False,False,False,False,False,False,False
0,6,-1,0,0,False,False,False,False,False,False,False
0,7,-1,0,0,False,False,False,False,False,False,False
0,8,-1,0,0,False,False,False,False,False,False,False
1,0,0,0,0,False,False,False,False,False,False,False
1,1,0,0,0,False,False,False,False,False,False,False
1,2,0,0,0,False,False,False,False,False,False,False
1,3,0,0,0,False,False,False,False,False,False,False
1,4,0,0,0,False,False,False,False,False,False,False
1,5,0,0,0,False,False,False,False,False,False,False
1,6,0,0,0,False,False,False,False,False,False,False
1,7,0,0,0,False,False,False,False,False,False,False
1,8,0,0,0,False,False,False,False,False,False,False
2,0,0,0,0,False,False,False,False,False,False,False
2,1,0,0,0,False,False,False,False,False,False,False
2,2,0,0,0,False,False,False,False,False,False,False
2,3,0,0,0,False,False,False,False,False,False,False
2,4,0,0,0,False,False,False,False,False,False,False
2,5,0,0,0,False,False,False,False,False,False,False
2,6,2,0,0,False,False,False,False,False,False,False
2,7,0,0,0,False,False,False,False,False,False,False
2,8,1,0,0,False,False,False,False,False,False,False
3,0,4,0,0,False,False,False,False,False,False,False
3,1,0,0,0,False,False,False,False,False,False,False
3,2,0,0,0,False,False,False,False,False,False,False
3,3,0,0,0,False,False,False,False,False,False,False
3,4,0,0,0,False,False,False,False,False,False,False
3,5,0,0,0,False,False,False,False,False,False,False
3,6,0,0,0,False,False,False,False,False,False,False
3,7,0,0,0,False,False,False,False,False,False,False
3,8,0,0,0,False,False,False,False,False,False,False
4,0,2,0,0,False,False,False,False,False,False,False
4,1,0,0,0,False,False,False,False,False,False,False
4,2,0,0,0,False,False,False,False,False,False,False
4,3,0,0,0,False,False,False,False,False,False,False
4,4,0,0,0,False,False,False,False,False,False,False
4,5,0,0,0,False,False,False,False,False,False,False
4,6,0,0,0,False,False,False,False,False,False,False
4,7,0,0,0,False,False,False,False,False,False,False
4,8,0,0,0,False,False,False,False,False,False,False
5,0,0,0,0,False,False,False,False,False,False,False
5,1,0,0,0,False,False,False,False,False,False,False
5,2,0,0,0,False,False,False,False,False,False,False
5,3,0,0,0,False,False,False,False,False,False,False
5,4,0,0,0,False,False,False,False,False,False,False
5,5,0,0,0,False,False,False,False,False,False,False
5,6,0,0,0,False,False,False,False,False,False,False
5,7,0,0,0,False,False,False,False,False,False,False
5,8,0,0,0,False,False,False,False,False,False,False
6,0,0,0,0,False,False,False,False,False,False,False
6,1,0,0,0,False,False,False,False,False,False,False
6,2,4,0,0,False,False,False,False,False,False,False
6,3,2,0,0,False,False,False,False,False,False,False
6,4,0,0,0,False,False,False,False,False,False,False
6,5,0,0,0,False,False,False,False,False,False,False
6,6,0,0,0,False,False,False,False,False,False,False
6,7,0,0,0,False,False,False,False,False,False,False
6,8,4,0,0,False,False,False,False,False,False,False
