Step,FileName,CameraX,CameraY,CameraZ,Size,RotationX,RotationY,RotationZ,Victoryconditions,TurnLimit,ComboCount,Two_StarAttainmentTargetTurn,Three_StarAttainmentTargetTurn,HexagonFieldX,HexagonFieldY,HexagonFieldZ,HexagonField_RotationX,HexagonField_RotationY,HexagonField_RotationZ
1,stage1,-9.2,53.35,18.2,46,61.40046,179.9667,4.39E-06,0,4,0,3,2,0,4,0,0,0,0
2,stage33,-11.70754,48.25414,22.5546,70.9,70.85319,179.4495,-0.000328635,0,10,0,8,6,0,4,0,0,0,0
3,stage3,-19.13895,45.14898,26.76411,78.6,61.39914,179.7935,-6.86E-05,0,4,0,3,2,0,4,0,0,0,0
4,stage2,-13.7,50.61978,17.9,69,61.39933,179.9656,2.22E-05,0,4,0,3,2,0,4,0,0,0,0
5,stage12,-16.18087,50.56815,32.67159,77.5,65.52383,179.1046,7.80E-05,0,14,0,10,7,0,4,0,0,0,0
6,stage10,-18.97726,51.0808,22.98803,81.3,68.61862,179.7936,0.000107139,0,5,0,3,2,0,4,0,0,0,0
7,stage14,-16.06754,51.92931,23.23512,74.7,66.38411,180.1375,9.75E-05,0,7,0,5,4,0,4,0,0,0,0
8,stage4,-11.79606,46.20343,26.46982,70.9,60.71187,179.1063,-7.13E-05,0,3,0,2,1,0,4,0,0,0,0
9,stage6,-21.30122,49.88314,39.73638,71.8,55.55512,179.792,-1.43E-06,0,7,0,5,4,0,4,0,0,0,0
10,stage40,-8.532022,69.8,25.4,66.1,83.74454,179.9655,2.14E-05,0,11,0,10,9,0,4,0,0,0,0
11,stage5,-14.68459,42.09679,42.13942,77.6,54.69601,179.4494,-2.46E-05,0,7,0,5,4,0,4,0,0,0,0
12,stage37,-23.41314,64.50951,27.68119,79.4,81.74936,180.1586,0.02064974,0,6,0,4,3,0,4,0,0,0,0
13,stage7,-12.20011,39.86822,33.25664,70.9,53.31885,178.9359,1.79E-06,0,6,0,4,3,0,4,0,0,0,0
14,stage9,-18.65974,44.57824,20.509,94.6,69.30705,179.1061,0.000112653,0,5,0,3,2,0,4,0,0,0,0
15,stage8,-25.46912,52.26501,35.67471,76.6,61.91491,180.6539,-6.66E-05,0,10,0,8,7,0,4,0,0,0,0
16,stage11,-18.98942,47.04659,26.85169,75.7,63.97756,179.1104,-7.81E-05,0,6,0,4,3,0,4,0,0,0,0
17,stage13,-11.26801,52.71946,23.61113,62.2,68.61858,180.1375,0.000107596,0,6,0,4,3,0,4,0,0,0,0
18,stage16,-17.64865,55.746,24.47346,73.7,72.91579,179.9656,0.000133282,0,7,0,5,4,0,4,0,0,0,0
19,stage15,-14.08863,54.43394,22.99909,64.9,68.44596,180.6531,0.000109662,0,7,0,5,4,0,4,0,0,0,0
20,stage17,-13.06471,52.08826,22.77276,68,69.47767,180.1376,0.000117488,0,7,0,5,4,0,4,0,0,0,0
21,stage18,-18.40758,54.52361,24.09732,84.2,72.91582,179.9656,0.000134111,0,7,0,5,4,0,4,0,0,0,0
22,stage19,-13.63486,56.5337,23.7,68.9,73.43169,179.9655,1.62E-05,0,6,0,4,3,0,4,0,0,0,0
23,stage36,-8.959802,84.22199,51.00465,57.7,71.26421,179.6312,0.01047336,0,7,0,5,4,0,4,0,0,0,0
24,stage35,-11.31231,44.6198,32.71586,68.6,61.63822,180.4884,0.007143472,0,6,0,4,3,0,4,0,0,0,0
25,stage26,-14.14615,45.96417,26.79857,68.8,55.55505,179.2796,-2.08E-06,1,6,0,4,2,0,4,0,0,0,0
26,stage27,-12.45976,46.56472,27.24713,66,59.68038,179.6223,-2.70E-06,1,8,0,6,4,0,4,0,0,0,0
27,stage67,-25.7,56.3,23.6,93.9,66.38384,179.7933,-0.000291524,1,11,0,9,8,0,4,0,0,0,0
28,stage45,-17.9,56.2,29.11457,72.6,71.36874,179.7935,-0.000138694,1,17,0,15,14,0,4,0,0,0,0
29,stage44,-14.35605,53.04691,17.8,68.9,77.38493,179.9655,1.02E-05,1,9,0,7,5,0,4,0,0,0,0
30,stage31,-26.07385,51.67863,36.28434,91.1,63.63379,179.9661,-6.96E-05,1,15,0,13,11,0,4,0,0,0,0
31,stage65,-6.3,52.1,19.1,47.1,69.99359,179.6218,3.75E-05,0,3,0,2,1,0,4,0,0,0,0
32,stage30,-21.54077,74.39798,60.11955,65.9,61.05601,180.9967,-6.30E-05,0,3,0,2,1,0,4,0,0,0,0
33,stage50,-16.49,58.58699,24.29872,69.7,68.61925,179.9652,-6.71E-05,0,5,0,3,2,0,4,0,0,0,0
34,stage51,-26.5,54.5,23.6,92.7,66.38384,179.7933,-0.000291524,1,8,0,6,5,0,4,0,0,0,0
35,stage75,-14.09,62.53952,24.1,60.4,71.77798,180,0.006995201,1,8,0,6,5,0,4,0,0,0,0
36,stage21,-21.2,91.68027,39.9,66.1,80.54618,180.2054,-0.000504728,0,6,0,4,2,0,4,0,0,0,0
37,stage64,-6.2,52.02979,19.3,52.8,69.99359,179.6218,3.75E-05,1,3,0,2,1,0,4,0,0,0,0
38,stage22,-17.57166,52.84447,31.23012,72,71.71243,180.3091,-1.38E-05,0,5,0,3,1,0,4,0,0,0,0
39,stage23,-13.8581,48.3158,32.44956,64.9,63.28947,180.4813,-0.000166024,0,5,0,3,1,0,4,0,0,0,0
40,stage24,-17.48594,67.43142,33.13263,70.9,76.86923,181.1688,-0.000475652,0,5,0,3,1,0,4,0,0,0,0
41,stage25,-8.312991,100.9883,54.48782,66.7,78.65562,180.3265,0.01627828,0,8,0,6,5,0,4,0,0,0,0
42,stage60,-21.02795,62.49643,32.9978,79.4,74.11887,179.9667,3.79E-05,0,7,0,5,4,0,4,0,0,0,0
43,stage61,-25.47966,62.1,34.15,90.8,74.11887,180.1345,3.54E-05,0,6,0,4,2,0,4,0,0,0,0
44,stage49,-13.73265,62.90067,22.31036,67.5,76.76367,179.6628,0.007349197,1,5,0,3,2,0,4,0,0,0,0
45,stage53,-19.38436,48.8377,21.43562,87.9,75.38921,179.829,0.003123174,1,6,0,4,3,0,4,0,0,0,0
46,stage59,-20.63385,85.95556,38.6804,58.5,72.29564,179.866,-9.21E-05,1,22,0,18,16,0,4,0,0,0,0
47,stage32,-26.22656,52.18674,35.63012,94.1,61.57114,179.795,-6.59E-05,1,15,0,11,9,0,4,0,0,0,0
48,stage66,-5.8,52.02979,12.76,44.3,69.99359,179.6218,3.75E-05,0,3,0,2,1,0,4,0,0,0,0
49,stage34,-11.31231,44.6198,32.71586,68.6,61.63822,180.4884,0.007143472,0,6,0,4,3,0,4,0,0,0,0
50,stage28,-9.462132,53.87644,19.66146,47.7,69.99747,179.9661,0.000550038,0,6,0,4,3,0,4,0,0,0,0
51,stage55,-13.9,44.80456,20.63,86,68.27486,180.6531,4.41E-05,0,12,0,10,8,0,4,0,0,0,0
52,stage52,-14.8,55.52205,24.1,67.5,69.37324,180,0.002246077,1,10,0,8,6,0,4,0,0,0,0
53,stage54,-25.5,69.63014,43.06369,81.3,84.15541,179.8614,-0.000825114,1,7,0,5,3,0,4,0,0,0,0
54,stage43,-14.35605,53.04691,17.8,68.9,77.38493,179.9655,1.02E-05,1,6,0,4,3,0,4,0,0,0,0
55,stage68,-13.1,56.56128,12.99,71.2,79.9631,179.9651,-0.000417068,1,13,0,11,9,0,4,0,0,0,0
56,stage79,-25.7,70.9,49.9,77.2,61.81029,181.3792,0.007006488,1,18,0,14,12,0,4,0,0,0,0
57,stage38,-16.43284,56.98168,24.56325,56.5,70.23303,180.1454,0.009062408,0,8,0,7,6,0,4,0,0,0,0
58,stage77,-13.91,62.1,24.6,59.5,71.77798,180,0.006995201,0,3,0,2,1,0,4,0,0,0,0
59,stage76,-13.91,62.1,22.6,59.5,71.77798,180,0.006995201,0,12,0,10,8,0,4,0,0,0,0
60,stage78,-13.91,62.1,24.6,59.5,71.77798,180,0.006995201,0,11,0,7,5,0,4,0,0,0,0
61,stage100,-17.5,53.14102,23.2,75.3,71.88428,179.9625,0.00045974,0,16,0,12,10,0,4,0,0,0,0
62,stage94,-13.8,78.23444,27.47703,46,71.02489,179.9658,0.00027785,0,14,0,10,8,0,4,0,0,0,0
63,stage47,-21.2,65.27666,33.1,77,67.13913,179.9731,0.007593608,0,15,0,11,9,0,4,0,0,0,0
64,stage39,-20.95553,61.09586,42.2292,82.2,69.13415,179.6229,-5.73E-06,0,9,0,7,5,0,4,0,0,0,0
65,stage46,-21.42035,62.90092,22.26394,81.7,76.76367,179.6628,0.007349197,0,5,0,3,2,0,4,0,0,0,0
66,stage89,-13.7463,60.24381,15.7,63.8,74.70173,179.8434,0.01379714,0,12,0,8,6,0,4,0,0,0,0
67,stage95,-13.8,78.23444,27.47703,46,71.02489,179.9658,0.00027785,0,10,0,7,5,0,4,0,0,0,0
68,stage92,-13.8,78.23444,27.47703,46,71.02489,179.9658,0.00027785,0,14,0,10,8,0,4,0,0,0,0
69,stage98,-18.4,53.141,18.8,75.3,71.88426,179.7947,0.000459557,0,20,0,15,13,0,4,0,0,0,0
70,stage97,-13.9,48.2,18.3,77,71.88403,179.6222,0.000462962,0,10,0,6,4,0,4,0,0,0,0
71,stage41,-20.55422,75.52394,24.4,68.9,84.43226,180.3085,3.68E-05,0,8,0,5,3,0,4,0,0,0,0
72,stage48,-21.2,65.27666,42.6,77,67.13913,179.9731,0.007593608,0,10,0,6,3,0,4,0,0,0,0
73,stage69,-13.7,50.61978,17.9,69,61.39933,179.9656,2.22E-05,0,5,4,3,2,0,4,0,0,0,0
74,stage71,-18.65974,44.57824,20.509,94.6,69.30706,179.1061,0.000112729,0,5,14,3,2,0,4,0,0,0,0
75,stage74,-8.959802,84.22199,51.00465,57.7,71.26424,179.6312,0.01047333,0,6,9,5,4,0,4,0,0,0,0
76,stage20,-14.16287,67.41029,30.68141,55.7,69.20171,180.8932,-0.000206032,0,7,5,6,5,0,4,0,0,0,0
77,stage88,-16.1,61.7,19.1,70.5,74.7017,180.0113,0.01379909,0,10,8,7,5,0,4,0,0,0,0
78,stage86,-13.63486,56.5337,23.7,68.9,73.43169,179.9655,1.62E-05,0,7,2,5,3,0,4,0,0,0,0
79,stage82,-18.97726,51.0808,22.98803,81.3,68.61863,179.7936,0.000107139,0,10,10,7,5,0,4,0,0,0,0
80,stage70,-18.6,47.67348,25.21037,75.4,61.74311,180.3093,1.13E-05,0,10,8,6,3,0,4,0,0,0,0
81,stage73,-18.40758,54.52361,24.09732,84.2,72.91583,179.9656,0.000134111,0,8,16,6,5,0,4,0,0,0,0
82,stage72,-11.26801,52.71946,23.61113,62.2,68.61859,180.1375,0.000107615,0,10,6,6,4,0,4,0,0,0,0
83,stage56,-19.89867,81.6979,42.1,53.8,68.51482,179.69,-0.000215295,0,11,10,9,7,0,4,0,0,0,0
84,stage57,-18.2,72.79893,25,62.3,79.79121,179.9656,8.80E-05,0,11,7,9,7,0,4,0,0,0,0
85,stage80,-12.20011,39.86822,33.25664,70.9,53.31885,178.9359,1.74E-06,0,12,3,8,6,0,4,0,0,0,0
86,stage81,-25.46912,52.26501,35.67471,76.6,61.91493,180.6539,-6.66E-05,0,11,8,7,9,0,4,0,0,0,0
87,stage83,-18.98942,47.04659,26.85169,75.7,63.97755,179.1104,-7.80E-05,0,15,6,11,9,0,4,0,0,0,0
88,stage84,-14.08863,54.43394,22.99909,64.9,68.44597,180.6531,0.000109662,0,12,6,8,6,0,4,0,0,0,0
89,stage85,-13.06471,52.08826,22.77276,68,69.47768,180.1376,0.000117488,0,8,5,6,4,0,4,0,0,0,0
90,stage87,-14.16287,67.41029,30.68141,55.7,69.20173,180.8932,-0.000206032,0,9,5,6,4,0,4,0,0,0,0
91,stage93,-13.8,78.23444,27.47703,46,71.02489,179.9658,0.00027785,2,13,10,9,7,0,4,0,0,0,0
92,stage91,-13.8,78.23444,27.47703,46,71.0249,179.9658,0.000277845,0,13,8,9,7,0,4,0,0,0,0
93,stage90,-13.7463,60.24381,21.7,63.8,74.70173,179.8434,0.01379714,0,16,12,11,9,0,4,0,0,0,0
94,stage96,-17.2,78.23444,27.47703,50.2,71.02489,179.9658,0.00027785,2,20,7,15,13,0,4,0,0,0,0
95,stage99,-13.9,50.2,16.9,75.3,71.88428,179.9625,0.00045974,2,11,12,7,5,0,4,0,0,0,0
96,stage58,-20.7,72.79893,25,69.9,79.79121,179.9656,8.80E-05,2,8,10,6,5,0,4,0,0,0,0
97,stage102,-18.4,62.4,24.3,61,72.7438,179.966,0.000481885,2,11,15,7,5,0,4,0,0,0,0
98,stage101,-13.9,51.6,19.8,75.3,71.88428,179.9625,0.00045974,0,10,11,6,4,0,4,0,0,0,0
99,stage29,-25.3,71.86345,37.59922,72.8,70.50917,179.9654,-7.48E-06,1,15,0,11,9,0,4,0,0,0,0
100,stage42,-20.18777,60.30421,43.05062,82.2,68.44664,179.9657,1.08E-05,2,40,0,35,28,0,4,0,0,0,0
